<?xml version="1.0" encoding="UTF-8"?>
<!DOCTYPE svg PUBLIC "-//W3C//DTD SVG 1.1//EN" "http://www.w3.org/Graphics/SVG/1.1/DTD/svg11.dtd">
<!-- Creator: CorelDRAW 2021 (64-Bit) -->
<svg xmlns="http://www.w3.org/2000/svg" xml:space="preserve" width="119mm" height="117mm" version="1.1" style="shape-rendering:geometricPrecision; text-rendering:geometricPrecision; image-rendering:optimizeQuality; fill-rule:evenodd; clip-rule:evenodd"
viewBox="0 0 11900 11700"
 xmlns:xlink="http://www.w3.org/1999/xlink"
 xmlns:xodm="http://www.corel.com/coreldraw/odm/2003">
 <defs>
  <style type="text/css">
   <![CDATA[
    .str0 {stroke:black;stroke-width:20;stroke-miterlimit:22.9256}
    .fil0 {fill:#292929}
    .fil1 {fill:#FEFEFE}
   ]]>
  </style>
 </defs>
 <g id="Слой_x0020_1">
  <metadata id="CorelCorpID_0Corel-Layer"/>
  <g id="_1505857784640">
   <ellipse class="fil0 str0" cx="5996.1" cy="5831.65" rx="5666.52" ry="5795.1"/>
   <path class="fil1" d="M4701.87 6778.56c95.61,49.41 167.7,80.2 273.56,116.38 194.52,66.48 398.55,108.8 611.84,139.7 -109.09,208.27 -147.48,254.74 -211.36,540.01 -17.51,216.53 -2.38,203.17 -234.63,246.19 -951.43,176.21 -1205.33,-615.48 -1439.43,-825.14 -134.27,-120.27 -448.31,-293.46 -700.5,-172.77 20.54,118.21 63.88,117.79 151.19,179.89 362.3,257.73 526.31,930.84 849.93,1196.29 207.47,170.21 456.35,285.89 729.26,318.15 256.33,30.29 421.64,-31.67 629.63,-24.01l2.2 824.9c5.4,192.97 -29.82,87.78 77.39,120.12l1846.97 -1.63c0.31,-448.51 -0.68,-884.77 -0.94,-1321.01 -0.36,-606.01 -11.75,-617.88 -224.82,-1082.4 1610.97,-230.74 2182.65,-1354.7 1827.32,-2861.2 -54.26,-392.54 -217.06,-530.57 -387.25,-746.22 40.35,-200.38 103.67,-292.11 109.09,-540.72 5.02,-230.27 -43.91,-368.77 -89.93,-572.05l-39.45 -84.6c-460.28,21.85 -753.84,473.35 -964.06,706.67 -382.61,-282.02 -1367.48,-268.67 -1886.7,-188.02 -289.33,44.94 -322.36,97.62 -517.91,191.25 -157.05,-264.87 -518.9,-673.48 -947.4,-713.64 -175.66,523.94 -152.24,667.85 -14.82,1201.11 -189.17,251.05 -286.95,283.64 -384.9,702.29 -72.66,310.59 -94.1,712.65 -85.04,1041.54 12.1,438.81 163.5,921.31 464.61,1202.04 54,50.35 76.33,81.96 135.55,134.67 129.75,115.52 265.29,191.97 420.6,272.21z"/>
   <path class="fil0" d="M8889.48 4172.03c86.11,-44.12 45.59,-47.44 116.88,-91.07 63.84,-39.07 120.47,1.33 146.68,-67.18l-24.91 -189.2c-30.68,8.65 -73.01,28.59 -79.98,31.13 -138.73,50.59 119.02,-9.19 -47.77,16.45 -54.13,8.33 -25.41,25.22 -23.86,-30.81 23.58,17.46 -123.65,35.24 36.4,-6.86 118.9,-31.28 1.42,-6.51 235.47,64.38 22.51,-55.48 43.41,-118.01 60.12,-179.08l25.26 25.63c0.55,1.68 2,9.78 2.5,11.73 0.62,2.42 2.51,12.08 3.06,14.58l7.19 36.3c105.88,-46.71 124.13,-207.33 218.25,-183.72 7.5,1.89 62.02,27.66 75.73,31.45l-33.76 -143.69c-7.62,-98.22 -61.66,-124.28 -151.94,-224.85l-750.28 -813.35c-21.61,-25.63 -43.92,-58.2 -66.96,-82.34 -92.4,-96.8 -13.39,-45.59 -116.17,-78.49 46.02,203.28 94.95,341.78 89.93,572.05 -5.42,248.61 -68.74,340.34 -109.09,540.72 170.19,215.65 332.99,353.68 387.25,746.22z"/>
   <path class="fil0" d="M5440.95 9438.27c-107.21,-32.34 -71.99,72.85 -77.39,-120.12l-2.2 -824.9c-207.99,-7.66 -373.3,54.3 -629.63,24.01 -198.86,-23.51 -377.63,-132.65 -533.69,-146.1 -54.88,49.41 64.11,75.87 250.51,283.02l767.25 796.77c84.09,75.34 91.95,114.23 192.48,137.77l32.67 -150.45z"/>
   <path class="fil0" d="M5375.91 7574.65c63.88,-285.27 102.27,-331.74 211.36,-540.01 -213.29,-30.9 -417.32,-73.22 -611.84,-139.7 -105.86,-36.18 -177.95,-66.97 -273.56,-116.38 -113.89,-58.85 -159.17,-104.85 -262.49,-120.54 -1.9,63.02 654.01,723.22 758.53,824.64 56.73,55.06 49.93,68.12 126.68,114.1 -1.34,2.19 -0.66,5.52 0.07,7.71l25.75 -11.08c4.2,-2.52 17.18,-12.25 25.5,-18.74z"/>
  </g>
 </g>
</svg>
